sim/cpu8.vcd
$date
	Wed Dec 17 11:40:08 2025
$end
$version
	Icarus Verilog
$end
$timescale
	1ps
$end
$scope module tb_cpu $end
$var wire 8 ! leds [7:0] $end
$var reg 1 " clk $end
$var reg 1 # enable $end
$var reg 1 $ reset $end
$var integer 32 % cycle_count [31:0] $end
$var integer 32 & fail_count [31:0] $end
$var integer 32 ' pass_count [31:0] $end
$var integer 32 ( test_count [31:0] $end
$scope module dut $end
$var wire 1 " clk $end
$var wire 1 # enable $end
$var wire 8 ) leds [7:0] $end
$var wire 1 $ reset $end
$var wire 3 * opcode [2:0] $end
$var wire 8 + instr [7:0] $end
$var wire 5 , imm [4:0] $end
$var wire 8 - alu_out [7:0] $end
$var reg 8 . ACC [7:0] $end
$var reg 8 / PC [7:0] $end
$var reg 1 0 halt $end
$scope module ALU $end
$var wire 8 1 acc [7:0] $end
$var wire 5 2 imm [4:0] $end
$var wire 3 3 opcode [2:0] $end
$var reg 8 4 result [7:0] $end
$upscope $end
$scope module ROM $end
$var wire 8 5 pc [7:0] $end
$var reg 8 6 instr [7:0] $end
$upscope $end
$upscope $end
$scope task apply_reset $end
$upscope $end
$scope task check_no_x_z $end
$var reg 2048 7 test_name [2047:0] $end
$var reg 8 8 value [7:0] $end
$upscope $end
$scope task check_value $end
$var reg 8 9 actual [7:0] $end
$var reg 8 : expected [7:0] $end
$var reg 2048 ; test_name [2047:0] $end
$upscope $end
$scope task display_test_summary $end
$upscope $end
$scope task test_add_instruction $end
$upscope $end
$scope task test_alu_regression $end
$var reg 8 < expected_add [7:0] $end
$var reg 8 = expected_and [7:0] $end
$var reg 8 > expected_lda [7:0] $end
$var reg 8 ? expected_xor [7:0] $end
$var reg 8 @ test_acc [7:0] $end
$var reg 5 A test_imm [4:0] $end
$upscope $end
$scope task test_edge_cases $end
$upscope $end
$scope task test_enable_freeze $end
$var reg 8 B acc_before [7:0] $end
$upscope $end
$scope task test_enable_no_pc_advance $end
$var reg 8 C acc_before [7:0] $end
$upscope $end
$scope task test_jmp_instruction $end
$var reg 8 D acc_after_jmp [7:0] $end
$var reg 8 E acc_before_jmp [7:0] $end
$upscope $end
$scope task test_lda_instruction $end
$upscope $end
$scope task test_no_x_z_values $end
$var integer 32 F i [31:0] $end
$upscope $end
$scope task test_pc_regression $end
$var integer 32 G i [31:0] $end
$upscope $end
$scope task test_reset_functionality $end
$upscope $end
$scope task test_single_cycle_timing $end
$var reg 8 H value_before [7:0] $end
$upscope $end
$scope task verify_single_cycle $end
$var reg 2048 I test_name [2047:0] $end
$var reg 8 J value_after [7:0] $end
$var reg 8 K value_before [7:0] $end
$upscope $end
$scope task wait_cycles $end
$var integer 32 L i [31:0] $end
$var integer 32 M n [31:0] $end
$upscope $end
$upscope $end
$enddefinitions $end
$comment Show the parameter values. $end
$dumpall
$end
#0
$dumpvars
bx M
bx L
bx K
bx J
bx I
bx H
bx G
bx F
bx E
bx D
bx C
bx B
bx A
bx @
bx ?
bx >
bx =
bx <
bx ;
bx :
bx 9
bx 8
bx 7
bx 6
bx 5
bx 4
bx 3
bx 2
bx 1
x0
bx /
bx .
bx -
bx ,
bx +
bx *
bx )
b0 (
b0 '
b0 &
b0 %
1$
0#
0"
bx !
$end
#5000
b1 ,
b1 2
b0 *
b0 3
b1 -
b1 4
b1 +
b1 6
00
b0 !
b0 )
b0 .
b0 1
b0 /
b0 5
1"
#10000
0"
#15000
1"
#16000
b0 L
b101 M
0$
b1001110011011110010000001011000001011110101101000100000011001000111010101110010011010010110111001100111001000000111001001100101011100110110010101110100 7
b0 8
b10 '
b10 (
b10000010100001101000011001000000110001101101100011001010110000101110010011001010110010000100000011001000111010101110010011010010110111001100111001000000111001001100101011100110110010101110100 ;
b0 :
b0 9
#20000
0"
#25000
b1 L
b1 %
1"
#30000
0"
#35000
b10 L
b10 %
1"
#40000
0"
#45000
b11 L
b11 %
1"
#50000
0"
#55000
b100 L
b100 %
1"
#60000
0"
#65000
1$
b101 L
b101 %
1"
#70000
0"
#75000
1"
#80000
0"
#85000
1"
#86000
1$
b11 '
b11 (
b10100100110010101110011011001010111010000100000011001000111010101110010011010010110111001100111001000000110111101110000011001010111001001100001011101000110100101101111011011100010000001100011011011000110010101100001011100100111001100100000010000010100001101000011 ;
#90000
0"
#95000
1"
#100000
0"
#105000
0$
1"
#110000
0"
#115000
b10 -
b10 4
b1 *
b1 3
b100001 +
b100001 6
b1 /
b1 5
b1 !
b1 )
b1 .
b1 1
b0 L
b1 M
b0 %
1#
1"
#120000
0"
#125000
b100 *
b100 3
b10000001 +
b10000001 6
b10 -
b10 4
b10 /
b10 5
b10 !
b10 )
b10 .
b10 1
0#
1$
b10011000100010001000001001000000111001001100101011100110111010101101100011101000010000001101000011000010111001100100000011011100110111100100000010110000010111101011010 7
b1 8
b101 '
b101 (
b10011000100010001000001001000000110110001101111011000010110010001110011001000000110100101101101011011010110010101100100011010010110000101110100011001010010000001110110011000010110110001110101011001010010000000110001 ;
b1 :
b1 9
b1 L
b1 %
1"
#130000
0"
#135000
b0 *
b0 3
b1 -
b1 4
b1 +
b1 6
b0 !
b0 )
b0 .
b0 1
b0 /
b0 5
1"
#140000
0"
#145000
0$
1"
#150000
0"
#155000
b10 -
b10 4
b1 *
b1 3
b100001 +
b100001 6
b1 /
b1 5
b1 !
b1 )
b1 .
b1 1
b0 L
b0 %
1#
1"
#160000
0"
#165000
b100 *
b100 3
b10000001 +
b10000001 6
b10 -
b10 4
b10 /
b10 5
b10 !
b10 )
b10 .
b10 1
b110 '
b110 (
b10010010110111001101001011101000110100101100001011011000010000001000001010000110100001100100000011000010110011001110100011001010111001000100000010011000100010001000001 ;
b0 L
b1 %
1"
#170000
0"
#175000
b11 -
b11 4
b1 *
b1 3
b100001 +
b100001 6
b1 /
b1 5
b10 M
b111 '
b111 (
b1000001010001000100010000111010001000000011000100101011001100010011110100110010 ;
b10 :
b10 9
b0 L
b10 %
1"
#180000
0"
#185000
b100 *
b100 3
b10000001 +
b10000001 6
b11 -
b11 4
b10 /
b10 5
b11 !
b11 )
b11 .
b11 1
b1 L
b11 %
1"
#190000
0"
#195000
b100 -
b100 4
b1 *
b1 3
b100001 +
b100001 6
b1 /
b1 5
b1000 '
b1000 (
b1000001010001000100010000111010001000000011001000101011001100010011110100110011 ;
b11 :
b11 9
b0 L
b100 %
1"
#200000
0"
#205000
b100 *
b100 3
b10000001 +
b10000001 6
b100 -
b100 4
b10 /
b10 5
b100 !
b100 )
b100 .
b100 1
b1 L
b101 %
1"
#210000
0"
#215000
b101 -
b101 4
b1 *
b1 3
b100001 +
b100001 6
b1 /
b1 5
b1001 '
b1001 (
b1000001010001000100010000111010001000000011001100101011001100010011110100110100 ;
b100 :
b100 9
b0 L
b110 %
1"
#220000
0"
#225000
b100 *
b100 3
b10000001 +
b10000001 6
b101 -
b101 4
b10 /
b10 5
b101 !
b101 )
b101 .
b101 1
b1 L
b111 %
1"
#230000
0"
#235000
b110 -
b110 4
b1 *
b1 3
b100001 +
b100001 6
b1 /
b1 5
0#
1$
b1010 '
b1010 (
b1000001010001000100010000111010001000000011010000101011001100010011110100110101 ;
b101 :
b101 9
b10 L
b1000 %
1"
#240000
0"
#245000
b0 *
b0 3
b1 -
b1 4
b1 +
b1 6
b0 !
b0 )
b0 .
b0 1
b0 /
b0 5
1"
#250000
0"
#255000
0$
1"
#260000
0"
#265000
b10 -
b10 4
b1 *
b1 3
b100001 +
b100001 6
b1 /
b1 5
b1 !
b1 )
b1 .
b1 1
b0 L
b0 %
1#
1"
#270000
0"
#275000
b100 *
b100 3
b10000001 +
b10000001 6
b10 -
b10 4
b10 /
b10 5
b10 !
b10 )
b10 .
b10 1
b1 L
b1 %
1"
#280000
0"
#285000
b11 -
b11 4
b1 *
b1 3
b100001 +
b100001 6
b1 /
b1 5
b1 M
b10 E
b0 L
b10 %
1"
#290000
0"
#295000
b100 *
b100 3
b10000001 +
b10000001 6
b11 -
b11 4
b10 /
b10 5
b11 !
b11 )
b11 .
b11 1
b1010 M
b1011 '
b1011 (
b10 D
b0 L
b11 %
1"
#300000
0"
#305000
b100 -
b100 4
b1 *
b1 3
b100001 +
b100001 6
b1 /
b1 5
b1 L
b100 %
1"
#310000
0"
#315000
b100 *
b100 3
b10000001 +
b10000001 6
b100 -
b100 4
b10 /
b10 5
b100 !
b100 )
b100 .
b100 1
b10 L
b101 %
1"
#320000
0"
#325000
b101 -
b101 4
b1 *
b1 3
b100001 +
b100001 6
b1 /
b1 5
b11 L
b110 %
1"
#330000
0"
#335000
b100 *
b100 3
b10000001 +
b10000001 6
b101 -
b101 4
b10 /
b10 5
b101 !
b101 )
b101 .
b101 1
b100 L
b111 %
1"
#340000
0"
#345000
b110 -
b110 4
b1 *
b1 3
b100001 +
b100001 6
b1 /
b1 5
b101 L
b1000 %
1"
#350000
0"
#355000
b100 *
b100 3
b10000001 +
b10000001 6
b110 -
b110 4
b10 /
b10 5
b110 !
b110 )
b110 .
b110 1
b110 L
b1001 %
1"
#360000
0"
#365000
b111 -
b111 4
b1 *
b1 3
b100001 +
b100001 6
b1 /
b1 5
b111 L
b1010 %
1"
#370000
0"
#375000
b100 *
b100 3
b10000001 +
b10000001 6
b111 -
b111 4
b10 /
b10 5
b111 !
b111 )
b111 .
b111 1
b1000 L
b1011 %
1"
#380000
0"
#385000
b1000 -
b1000 4
b1 *
b1 3
b100001 +
b100001 6
b1 /
b1 5
b1001 L
b1100 %
1"
#390000
0"
#395000
b100 *
b100 3
b10000001 +
b10000001 6
b1000 -
b1000 4
b10 /
b10 5
b1000 !
b1000 )
b1000 .
b1000 1
0#
1$
b0 =
b10101010 ?
b0 <
b11111111 @
b1010 >
b0 A
b10011 '
b10011 (
b1010 L
b1101 %
1"
#400000
0"
#405000
b0 *
b0 3
b1 -
b1 4
b1 +
b1 6
b0 !
b0 )
b0 .
b0 1
b0 /
b0 5
1"
#410000
0"
#415000
0$
1"
#420000
0"
#425000
b10 -
b10 4
b1 *
b1 3
b100001 +
b100001 6
b1 /
b1 5
b1 !
b1 )
b1 .
b1 1
b0 L
b1 M
b10100 (
b0 %
1#
1"
#430000
0"
#435000
b100 *
b100 3
b10000001 +
b10000001 6
b10 -
b10 4
b10 /
b10 5
b10 !
b10 )
b10 .
b10 1
b10 M
b0 G
b10101 (
b10100 '
b0 L
b1 %
1"
#440000
0"
#445000
b11 -
b11 4
b1 *
b1 3
b100001 +
b100001 6
b1 /
b1 5
b1 L
b10 %
1"
#450000
0"
#455000
b100 *
b100 3
b10000001 +
b10000001 6
b11 -
b11 4
b10 /
b10 5
b11 !
b11 )
b11 .
b11 1
b1 G
b0 L
b11 %
1"
#460000
0"
#465000
b100 -
b100 4
b1 *
b1 3
b100001 +
b100001 6
b1 /
b1 5
b1 L
b100 %
1"
#470000
0"
#475000
b100 *
b100 3
b10000001 +
b10000001 6
b100 -
b100 4
b10 /
b10 5
b100 !
b100 )
b100 .
b100 1
b10 G
b0 L
b101 %
1"
#480000
0"
#485000
b101 -
b101 4
b1 *
b1 3
b100001 +
b100001 6
b1 /
b1 5
b1 L
b110 %
1"
#490000
0"
#495000
b100 *
b100 3
b10000001 +
b10000001 6
b101 -
b101 4
b10 /
b10 5
b101 !
b101 )
b101 .
b101 1
b11 G
b0 L
b111 %
1"
#500000
0"
#505000
b110 -
b110 4
b1 *
b1 3
b100001 +
b100001 6
b1 /
b1 5
b1 L
b1000 %
1"
#510000
0"
#515000
b100 *
b100 3
b10000001 +
b10000001 6
b110 -
b110 4
b10 /
b10 5
b110 !
b110 )
b110 .
b110 1
b100 G
b0 L
b1001 %
1"
#520000
0"
#525000
b111 -
b111 4
b1 *
b1 3
b100001 +
b100001 6
b1 /
b1 5
b1 L
b1010 %
1"
#530000
0"
#535000
b100 *
b100 3
b10000001 +
b10000001 6
b111 -
b111 4
b10 /
b10 5
b111 !
b111 )
b111 .
b111 1
1$
b10101 '
b101 G
b10 L
b1011 %
1"
#540000
0"
#545000
b0 *
b0 3
b1 -
b1 4
b1 +
b1 6
b0 !
b0 )
b0 .
b0 1
b0 /
b0 5
1"
#550000
0"
#555000
1"
#556000
0#
1$
b10111 '
b10111 (
b100010101100100011001110110010100111010001000000101101001100101011100100110111100100000011001000111010101110010011010010110111001100111001000000111001001100101011100110110010101110100 ;
b0 :
b0 9
#560000
0"
#565000
1"
#570000
0"
#575000
0$
1"
#580000
0"
#585000
b10 -
b10 4
b1 *
b1 3
b100001 +
b100001 6
b1 /
b1 5
b1 !
b1 )
b1 .
b1 1
1$
b11000 '
b11000 (
b0 %
0#
1"
#590000
0"
#595000
b0 *
b0 3
b1 -
b1 4
b1 +
b1 6
b0 !
b0 )
b0 .
b0 1
b0 /
b0 5
1"
#600000
0"
#605000
0$
1"
#610000
0"
#615000
b10 -
b10 4
b1 *
b1 3
b100001 +
b100001 6
b1 /
b1 5
b1 !
b1 )
b1 .
b1 1
b0 L
b1 M
1#
1"
#620000
0"
#625000
b100 *
b100 3
b10000001 +
b10000001 6
b10 -
b10 4
b10 /
b10 5
b10 !
b10 )
b10 .
b10 1
b11001 (
b1000001010001000100010000100000011010010110111001110011011101000111001001110101011000110111010001101001011011110110111000100000011101000110100101101101011010010110111001100111 I
b1 K
b1 H
b1 L
b1 %
1"
#630000
0"
#635000
b11 -
b11 4
b1 *
b1 3
b100001 +
b100001 6
b1 /
b1 5
b11010 (
b1001010010011010101000000100000011010010110111001110011011101000111001001110101011000110111010001101001011011110110111000100000011101000110100101101101011010010110111001100111 I
b10 K
b10 H
b11001 '
b10 J
1"
#640000
0"
#645000
b100 *
b100 3
b10000001 +
b10000001 6
b11 -
b11 4
b10 /
b10 5
b11 !
b11 )
b11 .
b11 1
0#
1$
b11010 '
1"
#650000
0"
#655000
b0 *
b0 3
b1 -
b1 4
b1 +
b1 6
b0 !
b0 )
b0 .
b0 1
b0 /
b0 5
1"
#660000
0"
#665000
0$
1"
#670000
0"
#675000
b10 -
b10 4
b1 *
b1 3
b100001 +
b100001 6
b1 /
b1 5
b1 !
b1 )
b1 .
b1 1
b0 L
b0 F
b0 %
1#
1"
#680000
0"
#685000
b100 *
b100 3
b10000001 +
b10000001 6
b10 -
b10 4
b10 /
b10 5
b10 !
b10 )
b10 .
b10 1
b1 F
b0 L
b1 %
1"
#690000
0"
#695000
b11 -
b11 4
b1 *
b1 3
b100001 +
b100001 6
b1 /
b1 5
b10 F
b0 L
b10 %
1"
#700000
0"
#705000
b100 *
b100 3
b10000001 +
b10000001 6
b11 -
b11 4
b10 /
b10 5
b11 !
b11 )
b11 .
b11 1
b11 F
b0 L
b11 %
1"
#710000
0"
#715000
b100 -
b100 4
b1 *
b1 3
b100001 +
b100001 6
b1 /
b1 5
b100 F
b0 L
b100 %
1"
#720000
0"
#725000
b100 *
b100 3
b10000001 +
b10000001 6
b100 -
b100 4
b10 /
b10 5
b100 !
b100 )
b100 .
b100 1
b101 F
b0 L
b101 %
1"
#730000
0"
#735000
b101 -
b101 4
b1 *
b1 3
b100001 +
b100001 6
b1 /
b1 5
b110 F
b0 L
b110 %
1"
#740000
0"
#745000
b100 *
b100 3
b10000001 +
b10000001 6
b101 -
b101 4
b10 /
b10 5
b101 !
b101 )
b101 .
b101 1
b111 F
b0 L
b111 %
1"
#750000
0"
#755000
b110 -
b110 4
b1 *
b1 3
b100001 +
b100001 6
b1 /
b1 5
b1000 F
b0 L
b1000 %
1"
#760000
0"
#765000
b100 *
b100 3
b10000001 +
b10000001 6
b110 -
b110 4
b10 /
b10 5
b110 !
b110 )
b110 .
b110 1
b1001 F
b0 L
b1001 %
1"
#770000
0"
#775000
b111 -
b111 4
b1 *
b1 3
b100001 +
b100001 6
b1 /
b1 5
b1010 F
b0 L
b1010 %
1"
#780000
0"
#785000
b100 *
b100 3
b10000001 +
b10000001 6
b111 -
b111 4
b10 /
b10 5
b111 !
b111 )
b111 .
b111 1
b1011 F
b0 L
b1011 %
1"
#790000
0"
#795000
b1000 -
b1000 4
b1 *
b1 3
b100001 +
b100001 6
b1 /
b1 5
b1100 F
b0 L
b1100 %
1"
#800000
0"
#805000
b100 *
b100 3
b10000001 +
b10000001 6
b1000 -
b1000 4
b10 /
b10 5
b1000 !
b1000 )
b1000 .
b1000 1
b1101 F
b0 L
b1101 %
1"
#810000
0"
#815000
b1001 -
b1001 4
b1 *
b1 3
b100001 +
b100001 6
b1 /
b1 5
b1110 F
b0 L
b1110 %
1"
#820000
0"
#825000
b100 *
b100 3
b10000001 +
b10000001 6
b1001 -
b1001 4
b10 /
b10 5
b1001 !
b1001 )
b1001 .
b1001 1
b1111 F
b0 L
b1111 %
1"
#830000
0"
#835000
b1010 -
b1010 4
b1 *
b1 3
b100001 +
b100001 6
b1 /
b1 5
b10000 F
b0 L
b10000 %
1"
#840000
0"
#845000
b100 *
b100 3
b10000001 +
b10000001 6
b1010 -
b1010 4
b10 /
b10 5
b1010 !
b1010 )
b1010 .
b1010 1
b10001 F
b0 L
b10001 %
1"
#850000
0"
#855000
b1011 -
b1011 4
b1 *
b1 3
b100001 +
b100001 6
b1 /
b1 5
b10010 F
b0 L
b10010 %
1"
#860000
0"
#865000
b100 *
b100 3
b10000001 +
b10000001 6
b1011 -
b1011 4
b10 /
b10 5
b1011 !
b1011 )
b1011 .
b1011 1
b10011 F
b0 L
b10011 %
1"
#870000
0"
#875000
b1100 -
b1100 4
b1 *
b1 3
b100001 +
b100001 6
b1 /
b1 5
0#
1$
b11011 '
b11011 (
b10100 F
b1 L
b10100 %
1"
#880000
0"
#885000
b0 *
b0 3
b1 -
b1 4
b1 +
b1 6
b0 !
b0 )
b0 .
b0 1
b0 /
b0 5
1"
#890000
0"
#895000
0$
1"
#900000
0"
#905000
b10 -
b10 4
b1 *
b1 3
b100001 +
b100001 6
b1 /
b1 5
b1 !
b1 )
b1 .
b1 1
b0 L
b11 M
b0 %
1#
1"
#910000
0"
#915000
b100 *
b100 3
b10000001 +
b10000001 6
b10 -
b10 4
b10 /
b10 5
b10 !
b10 )
b10 .
b10 1
b1 L
b1 %
1"
#920000
0"
#925000
b11 -
b11 4
b1 *
b1 3
b100001 +
b100001 6
b1 /
b1 5
b10 L
b10 %
1"
#930000
0"
#935000
b100 *
b100 3
b10000001 +
b10000001 6
b11 -
b11 4
b10 /
b10 5
b11 !
b11 )
b11 .
b11 1
0#
b10 B
b11 L
b11 %
1"
#940000
0"
#945000
b0 L
b100 M
b11 B
1"
#950000
0"
#955000
b1 L
b100 %
1"
#960000
0"
#965000
b10 L
b101 %
1"
#970000
0"
#975000
b11 L
b110 %
1"
#980000
0"
#985000
b1 M
1#
b11100 '
b11100 (
b10000010100001101000011001000000110011001110010011011110111101001100101011011100010000001110111011010000110010101101110001000000110010101101110011000010110001001101100011001010011110100110000 ;
b11 :
b11 9
b0 L
b111 %
1"
#990000
0"
#995000
b100 -
b100 4
b1 *
b1 3
b100001 +
b100001 6
b1 /
b1 5
0#
1$
b11101 '
b11101 (
b100001101010000010101010010000001110010011001010111001101110101011011010110010101110011001000000110000101100110011101000110010101110010001000000110010101101110011000010110001001101100011001010011110100110001 7
b11 8
b1 L
b1000 %
1"
#1000000
0"
#1005000
b0 *
b0 3
b1 -
b1 4
b1 +
b1 6
b0 !
b0 )
b0 .
b0 1
b0 /
b0 5
1"
#1010000
0"
#1015000
0$
1"
#1020000
0"
#1025000
b10 -
b10 4
b1 *
b1 3
b100001 +
b100001 6
b1 /
b1 5
b1 !
b1 )
b1 .
b1 1
b0 L
b10 M
b0 %
1#
1"
#1030000
0"
#1035000
b100 *
b100 3
b10000001 +
b10000001 6
b10 -
b10 4
b10 /
b10 5
b10 !
b10 )
b10 .
b10 1
b1 L
b1 %
1"
#1040000
0"
#1045000
b11 -
b11 4
b1 *
b1 3
b100001 +
b100001 6
b1 /
b1 5
0#
b10 C
b10 L
b10 %
1"
#1050000
0"
#1055000
b0 L
b100 M
1"
#1060000
0"
#1065000
b1 L
b11 %
1"
#1070000
0"
#1075000
b10 L
b100 %
1"
#1080000
0"
#1085000
b11 L
b101 %
1"
#1090000
0"
#1095000
b1 M
1#
b11110 '
b11110 (
b10100000100001100101111010000010100001101000011001000000111010101101110011000110110100001100001011011100110011101100101011001000010000001110111011010000110010101101110001000000110010101101110011000010110001001101100011001010011110100110000 ;
b10 :
b10 9
b0 L
b110 %
1"
#1100000
0"
#1105000
b100 *
b100 3
b10000001 +
b10000001 6
b11 -
b11 4
b10 /
b10 5
b11 !
b11 )
b11 .
b11 1
b11111 '
b11111 (
b10001010111100001100101011000110111010101110100011010010110111101101110001000000111001001100101011100110111010101101101011001010111001100100000011000110110111101110010011100100110010101100011011101000110110001111001 7
b10 8
b1 L
b111 %
1"
